[ 2013-06-04T15:07:18+08:00 ] ERR: (ThinkException) 非法操作style.css
[ 2013-06-04T15:07:18+08:00 ] ERR: (ThinkException) 非法操作images
[ 2013-06-04T15:07:25+08:00 ] ERR: (ThinkException) 非法操作style.css
[ 2013-06-04T15:07:25+08:00 ] ERR: (ThinkException) 非法操作images
[ 2013-06-04T15:07:26+08:00 ] ERR: (ThinkException) 非法操作style.css
[ 2013-06-04T15:07:27+08:00 ] ERR: (ThinkException) 非法操作images
[ 2013-06-04T15:07:28+08:00 ] ERR: (ThinkException) 非法操作style.css
[ 2013-06-04T15:07:28+08:00 ] ERR: (ThinkException) 非法操作images
[ 2013-06-04T15:19:44+08:00 ] ERR: (ThinkException) 非法操作images
[ 2013-06-04T15:21:30+08:00 ] ERR: (ThinkException) 非法操作images
[ 2013-06-04T15:22:09+08:00 ] ERR: (ThinkException) 非法操作images
[ 2013-06-04T15:23:12+08:00 ] ERR: (ThinkException) 非法操作images
[ 2013-06-04T15:24:12+08:00 ] ERR: (ThinkException) 非法操作images
[ 2013-06-04T15:25:57+08:00 ] ERR: (ThinkException) 非法操作style.css
[ 2013-06-04T15:25:57+08:00 ] ERR: (ThinkException) 非法操作images
[ 2013-06-04T15:27:10+08:00 ] ERR: (ThinkException) 非法操作images
[ 2013-06-04T15:27:11+08:00 ] ERR: (ThinkException) 非法操作images
[ 2013-06-04T15:27:42+08:00 ] ERR: (ThinkException) 非法操作images
[ 2013-06-04T15:30:18+08:00 ] ERR: (ThinkException) 非法操作style.css
[ 2013-06-04T15:30:18+08:00 ] ERR: (ThinkException) 非法操作images
[ 2013-06-04T15:30:20+08:00 ] ERR: (ThinkException) 非法操作style.css
[ 2013-06-04T15:30:20+08:00 ] ERR: (ThinkException) 非法操作images
[ 2013-06-04T15:31:33+08:00 ] ERR: (ThinkException) 非法操作style.css
[ 2013-06-04T15:31:33+08:00 ] ERR: (ThinkException) 非法操作images
[ 2013-06-04T15:31:37+08:00 ] ERR: (ThinkException) 非法操作style.css
[ 2013-06-04T15:31:38+08:00 ] ERR: (ThinkException) 非法操作images
[ 2013-06-04T15:32:50+08:00 ] ERR: (ThinkException) 非法操作style.css
[ 2013-06-04T15:32:50+08:00 ] ERR: (ThinkException) 非法操作images
[ 2013-06-04T15:34:06+08:00 ] ERR: (ThinkException) 非法操作style.css
[ 2013-06-04T15:34:06+08:00 ] ERR: (ThinkException) 非法操作images
[ 2013-06-04T15:34:09+08:00 ] ERR: (ThinkException) 非法操作style.css
[ 2013-06-04T15:34:10+08:00 ] ERR: (ThinkException) 非法操作images
[ 2013-06-04T15:34:19+08:00 ] ERR: (ThinkException) 非法操作images
[ 2013-06-04T15:34:24+08:00 ] ERR: (ThinkException) 非法操作images
[ 2013-06-04T15:34:29+08:00 ] ERR: (ThinkException) 非法操作images
[ 2013-06-04T15:36:12+08:00 ] ERR: (ThinkException) 非法操作style.css
[ 2013-06-04T15:36:12+08:00 ] ERR: (ThinkException) 非法操作images
